{
  "userPassportGivenDate": "01.01.2000",
  "userPassportGivenBy": "Козелецким РВ УМВС Украины в городе Киев",
  "userSex": "1",
  "userPassportName": "Андрей",
  "userPassportSurname": "Успенский",
  "userPassportSecondName": "Валерьевич",
  "userPassportBirthdayDate": "10.10.1979",
  "userAddressRegion": "2",
  "userAddressCity": "Вестерос",
  "userAddressStreet": "Чернобыльская",
  "userAddressHouse": "16",
  "userAddressApartment": "95",
  "userAddressMatch": false,
  "userRegistrationAddressCity": "Киев",
  "userRegistrationAddressStreet": "Льва Толстого",
  "userRegistrationAddressHouse": "1",
  "userRegistrationAddressRegion": "2",
  "userRegistrationAddressApartment": "90"
}